…
MAPPING ANALYSIS:
  - Root diamond hashes: 18
  - Unique diamond hashes: 111
  - Root hashes in unique set: 18
  - Additional unique hashes: 93

ROOT DIAMOND CONTAINMENT ANALYSIS:
  ✅ No root diamond hashes appear as sub-diamonds of other diamonds
     All 18 root diamonds are maximal
==================================================
⏱️  Computation time: 0.608 seconds

FULL COMPARISON RESULTS:
26×6 DataFrame
 Row │ Node   OurAlgoValue  BenchmarkAlgoValue  AbsDifference  Difference    P ⋯
     │ Int64  Float64       Float64             Float64        Float64       F ⋯
─────┼──────────────────────────────────────────────────────────────────────────
   1 │    25      0.785915            0.785244    0.000670761   0.000670761  0 ⋯
   2 │    26      0.680898            0.680303    0.000595178   0.000595178  0
   3 │     3      0.418802            0.418324    0.000477549   0.000477549  0
   4 │    12      0.691886            0.691449    0.000436529   0.000436529  0
   5 │    10      0.801663            0.802099    0.000436366  -0.000436366  0 ⋯
   6 │     1      0.772116            0.771711    0.000405038   0.000405038  0
   7 │    19      0.682013            0.682398    0.000384878  -0.000384878  0
   8 │    23      0.418802            0.419186    0.000384451  -0.000384451  0
  ⋮  │   ⋮         ⋮                ⋮                 ⋮             ⋮          ⋱
  20 │    14      0.780472            0.780582    0.000109915  -0.000109915  0 ⋯
  21 │     4      0.777995            0.77792     7.49013e-5    7.49013e-5   0
  22 │    13      0.808109            0.808042    6.6623e-5     6.6623e-5    0
  23 │    21      0.418802            0.418745    5.65486e-5    5.65486e-5   0
  24 │     2      0.807037            0.807092    5.48057e-5   -5.48057e-5   0 ⋯
  25 │    22      0.729               0.728951    4.9e-5        4.9e-5       0
  26 │    18      0.780068            0.780038    3.01942e-5    3.01942e-5   0
                                                    1 column and 11 rows omitted
