…
MAPPING ANALYSIS:
  - Root diamond hashes: 45
  - Unique diamond hashes: 100
  - Root hashes in unique set: 45
  - Additional unique hashes: 55

ROOT DIAMOND CONTAINMENT ANALYSIS:
  ✅ No root diamond hashes appear as sub-diamonds of other diamonds
     All 45 root diamonds are maximal
==================================================
⏱️  Computation time: 0.024 seconds

FULL COMPARISON RESULTS:
306×6 DataFrame
 Row │ Node   OurAlgoValue  BenchmarkAlgoValue  AbsDifference  Difference    P ⋯
     │ Int64  Float64       Float64             Float64        Float64       F ⋯
─────┼──────────────────────────────────────────────────────────────────────────
   1 │    29     0.112648            0.112648     4.99217e-10  -4.99217e-10  4 ⋯
   2 │   200     0.112648            0.112648     4.99217e-10  -4.99217e-10  4
   3 │   262     0.256345            0.256345     4.99168e-10  -4.99168e-10  1
   4 │   301     0.19784             0.19784      4.80864e-10  -4.80864e-10  2
   5 │   116     0.0776048           0.0776048    4.69489e-10   4.69489e-10  6 ⋯
   6 │   122     0.0776048           0.0776048    4.69489e-10   4.69489e-10  6
   7 │    65     0.0776048           0.0776048    4.69489e-10   4.69489e-10  6
   8 │   175     0.0776048           0.0776048    4.69489e-10   4.69489e-10  6
  ⋮  │   ⋮         ⋮                ⋮                 ⋮             ⋮          ⋱
 300 │   209     0.478297            0.478297     1.11022e-16   1.11022e-16  2 ⋯
 301 │   235     0.478297            0.478297     1.11022e-16   1.11022e-16  2
 302 │   237     0.729               0.729        1.11022e-16   1.11022e-16  1
 303 │   238     0.729               0.729        1.11022e-16   1.11022e-16  1
 304 │   289     0.478297            0.478297     1.11022e-16   1.11022e-16  2 ⋯
 305 │    18     0.9                 0.9          0.0           0.0          0
 306 │    74     0.63832             0.63832      0.0           0.0          0
                                                   1 column and 291 rows omitted
