…
FULL COMPARISON RESULTS:
1041×6 DataFrame
  Row │ Node   OurAlgoValue  BenchmarkAlgoValue  AbsDifference  Difference     ⋯
      │ Int64  Float64       Float64             Float64        Float64        ⋯
──────┼─────────────────────────────────────────────────────────────────────────
    1 │   559      0.689752            0.689323    0.000428831   0.000428831   ⋯
    2 │   851      0.672667            0.673069    0.000401606  -0.000401606
    3 │  1008      0.854423            0.854027    0.000395872   0.000395872
    4 │  1023      0.689785            0.690172    0.000387369  -0.000387369
    5 │   121      0.692095            0.692458    0.00036341   -0.00036341    ⋯
    6 │   483      0.690313            0.689965    0.000348456   0.000348456
    7 │   123      0.69128             0.690949    0.000331569   0.000331569
    8 │    28      0.690457            0.690776    0.000318629  -0.000318629
  ⋮   │   ⋮         ⋮                ⋮                 ⋮             ⋮         ⋱
 1035 │   921      0.9                 0.899999    6.0e-7        6.0e-7        ⋯
 1036 │   948      0.9                 0.9         5.0e-7       -5.0e-7
 1037 │   595      0.685489            0.685489    3.41366e-7    3.41366e-7
 1038 │   917      0.9                 0.9         3.0e-7        3.0e-7
 1039 │   350      0.729               0.729       3.0e-7       -3.0e-7        ⋯
 1040 │   509      0.689785            0.689785    1.31439e-7    1.31439e-7
 1041 │   723      0.86751             0.86751     1.0e-7        1.0e-7
                                                  1 column and 1026 rows omitted
